			{ +_n_ -_n_ }
------------------------------------------------------------------------------------------	Ce fichier contient le nom et Smiles des polymères constitués d'ions dans le Smiles, symbolisées par des + et - et suivi d'un chiffre (indiquant le nombre de charges), ceux-ci sont simplement supprimés du Smiles avec le nombre de charges
------------------------------------------------------------------------------------------

