			{ [nH] }
------------------------------------------------------------------------------------------	Ce fichier contient le nom et Smiles des polymères constitués d'Azote et d'Hydrogènes notés entre crochets dans le Smiles, ceux-ci sont simplement remplacés par un Azote dans le Smiles.
------------------------------------------------------------------------------------------

